-------------------------------------------------------------------------------
Test set: com.revature.IngredientIntegrationTest
-------------------------------------------------------------------------------
Tests run: 10, Failures: 7, Errors: 0, Skipped: 0, Time elapsed: 3.668 s <<< FAILURE! - in com.revature.IngredientIntegrationTest
testPageIngredients  Time elapsed: 0.514 s  <<< FAILURE!
org.opentest4j.AssertionFailedError: expected: <{"pageNumber":1,"pageSize":2,"totalPages":3,"totalElements":6,"items":[{"id":1,"name":"carrot"},{"id":2,"name":"potato"}]}> but was: <{"pageNumber":0,"pageSize":0,"totalPages":0,"totalElements":0,"items":null}>
	at com.revature.IngredientIntegrationTest.lambda$testPageIngredients$7(IngredientIntegrationTest.java:94)
	at com.revature.IngredientIntegrationTest.testPageIngredients(IngredientIntegrationTest.java:92)

testGetIngredients  Time elapsed: 0.284 s  <<< FAILURE!
org.opentest4j.AssertionFailedError: expected: <[{"id":1,"name":"carrot"},{"id":2,"name":"potato"},{"id":3,"name":"tomato"},{"id":4,"name":"lemon"},{"id":5,"name":"rice"},{"id":6,"name":"stone"}]> but was: <[]>
	at com.revature.IngredientIntegrationTest.lambda$testGetIngredients$6(IngredientIntegrationTest.java:84)
	at com.revature.IngredientIntegrationTest.testGetIngredients(IngredientIntegrationTest.java:82)

testCreateIngredient  Time elapsed: 0.614 s  <<< FAILURE!
org.opentest4j.AssertionFailedError: expected: <{"id":7,"name":"parsnips"}> but was: <>
	at com.revature.IngredientIntegrationTest.lambda$testCreateIngredient$5(IngredientIntegrationTest.java:76)
	at com.revature.IngredientIntegrationTest.testCreateIngredient(IngredientIntegrationTest.java:74)

testGetIngredientsByTermSorted  Time elapsed: 0.481 s  <<< FAILURE!
org.opentest4j.AssertionFailedError: expected: <{"pageNumber":1,"pageSize":3,"totalPages":1,"totalElements":3,"items":[{"id":3,"name":"tomato"},{"id":6,"name":"stone"},{"id":2,"name":"potato"}]}> but was: <{"pageNumber":0,"pageSize":0,"totalPages":0,"totalElements":0,"items":null}>
	at com.revature.IngredientIntegrationTest.lambda$testGetIngredientsByTermSorted$9(IngredientIntegrationTest.java:115)
	at com.revature.IngredientIntegrationTest.testGetIngredientsByTermSorted(IngredientIntegrationTest.java:112)

testGetIngredientsByTerm  Time elapsed: 0.438 s  <<< FAILURE!
org.opentest4j.AssertionFailedError: expected: <[{"id":2,"name":"potato"},{"id":3,"name":"tomato"},{"id":6,"name":"stone"}]> but was: <[]>
	at com.revature.IngredientIntegrationTest.lambda$testGetIngredientsByTerm$8(IngredientIntegrationTest.java:104)
	at com.revature.IngredientIntegrationTest.testGetIngredientsByTerm(IngredientIntegrationTest.java:102)

testGetIngredient  Time elapsed: 0.313 s  <<< FAILURE!
org.opentest4j.AssertionFailedError: expected: <200> but was: <404>
	at com.revature.IngredientIntegrationTest.lambda$testGetIngredient$0(IngredientIntegrationTest.java:38)
	at com.revature.IngredientIntegrationTest.testGetIngredient(IngredientIntegrationTest.java:37)

testUpdateIngredient  Time elapsed: 0.298 s  <<< FAILURE!
org.opentest4j.AssertionFailedError: expected: <204> but was: <404>
	at com.revature.IngredientIntegrationTest.lambda$testUpdateIngredient$3(IngredientIntegrationTest.java:60)
	at com.revature.IngredientIntegrationTest.testUpdateIngredient(IngredientIntegrationTest.java:59)

